{
  "context": {
    "Section": "Village",
    "0": {
      "text": "Une douleur soudaine se déclenche et te donne une sensation désagréable de ne pas être au bon endroit. C’est avec difficulté que ta conscience émerge, que tu commence à comprendre ce qui se passe, et que tu parviens à entendre une voix fébrile s’adresser à toi : \n'Réveille toi…... allez gamine, reste pas inconsciente…'\nTu réussis à ouvrir lentement tes yeux, et à comprendre ton environnement. Tu es allongée dans un lit assez crasseux, une couverture sur toi. Ce lit est collé au mur par sa gauche, tandis qu’à ta droite est allongé un vieil homme qui te regarde et affiche de plus en plus clairement un sourire de joie. \nDes cheveux mouillés d’un gris brume, des rides et un sourire béat définissent son visage, tandis que son corps, fatigué et tremblant, couvert de bandages, de cicatrices et de sueur n’est recouvert que d’un tabard représentant un cercle rouge comprenant deux carré rouge. Il a repoussé sa couverture à ses pieds, laissant à découvert ses jambes fines noueuses mais musclés. Il tiens à sa main un bâton allongé et fin, et tu comprends rapidement que c’est l’élément de ta douleur soudaine. Tu en profites pour regarder le reste du lieu qui t’entoure, et tu vois que c’est une maison de petite taille et de piètre facture, une maison de paysan selon tes déductions. Après avoir fait le tour de ton inspection sommaire, tu te tourne de nouveau vers cette homme qui semble être la seule autre personne présente.\n'Je suis tellement soulagé que tu te sois enfin réveillée ! Deux jours que tu dors, gamine, je me faisais un sang d’encre. Ton père t’a confié à moi il y a de ça si longtemps, que je te considère comme ma propre fille, et te voir comme ça, sans conscience, allongé et inanimé…..mon cœur ne l’aurai pas supporté si tu étais resté plus longtemps ainsi. Quoique, comme tu peux voir, mon état actuel n’est pas vraiment des meilleurs. Force est de constater que combattre ces gars, était plus difficile que prévu. Remercions ces braves paysans d’avoir bien voulu prendre soin de nous.' te dit-il, un peu en haletant. ' Nous étions les protecteurs de cet artefact, l’ordre des chevaliers Minpsol du ProReact, nous aurions dû être mieux préparé à cette attaque, à ce vol....'\nAprès avoir parlé autant, il se rallongea sur sa couche, tout transpirant. Tu peux alors voir que son abdomen couvert de bandages est teinté de sang qui se mêle aux couleurs de son tabard. Il lâche son bâton et cherche à avoir ta main, que tu lui donne sans même réfléchir.\n'Sois forte, sois courageuse, et corrige l’injustice qui nous a été fait.'Il te lâche la main, ferme les yeux et respire difficilement. En regardant cet homme blessé, tu penses à tes bandages et regardes tes blessures, qui ne sont heureusement que superficielles ou peu profondes. Soulagée sur ce point là, tu souhaites te redresser et découvre une autre bonne nouvelle, à tes cotés sur le cadre de lit se trouve une arme, ton arme.",
      "choices": [
        {
          "text": "Rassurée mais inquiète, tu secoues un peu le vieil homme pour lui parler et savoir plus en détail la situation.",
          "target": "1"
        },
        {
          "text": "Tu te lève et va fouiller la pièce où tu te trouve.",
          "target": "2"
        },
        {
          "text": "Tu te lève et va à la porte pour voir les environs en dehors de la masure où tu te trouve.",
          "target": "3"
        }
      ]
    },
    "1": {
      "text": "Tu pose ta main délicatement sur son épaule et le secoue doucement, ne voulant pas le brusquer. Il rouvre les yeux, te regardes et directement arbore un sourire. 'Tu ressembles tellement à ta mère. Elle avait un fort caractère, était indépendante et belle, et il avait fallu peu de temps avant que ton père ne tombe sous son charme. Tu es née peu de temps après leur mariage tu sais. Je me souviens encore très bien de ton père après tes deux ans, me prenant à part et me disant ‘ Tu sais Jean-Eudes, tu es mon meilleur ami et ce depuis des années, tu es comme mon frère ! Tu es le meilleur guerrier que je connaisse,  et j’aimerai que t’occupe de l’apprentissage martial de ma fille. Tu peux faire ça pour moi ? Sois son gardien et son mentor.’ J’en fus tellement honoré, je respectais tellement ton père. C’est une tragédie ce qui leur est arrivé, cet accident, ???. J’ai t’ai prise sous mon aile, essayant tant bien que mal de te préparer au monde, à te préparer pour devenir une fière membre de notre ordre de chevalerie, l’ordre des Minpsol du ProReact. Assurant le maintien de l’ordre et de la justice, nous étions les protecteur de la Tasse sacré. Cette artefact, la Tasse de crystal. Il paraît que celle-ci a la faculté de faire apparaître des ruby. Tout ça avant qu’elle nous soit volé, par un infâme malandrin, un mécréant de la pire espèce, un sale vilipendeur qui….' \nIl se mit à tousser douloureusement, crachant du sang, rouvrant sa blessure abdominale. Il ne s’arrêta de tousser qu’après quelques minutes. Tu le recoucha sur son lit, puis lui ordonna de se reposer. Il te souris encore, alors que de la bave et du sang ornaient encore sa lèvre inférieure. Il parla d’une faible voix : 'J’ai trop parlé, tu as raison, du repos me sera sûrement bénéfique. Je suis navré, je pense que le vieillard que je suis ne pourra plus te suivre actuellement, je suis fatigué. Je suis fière de toi gamine…'. Il ferma les yeux, et soupira, alternant entre respiration saccadée et petite quinte de toux.",
      "choices": [
        {
          "text": "Tu décides de te rapprocher de la porte pour découvrir l’extérieur de la maison qui t’accueille.",
          "target": "5"
        },
        {
          "text": "Tu décides de fouiller la pièce où tu te trouve.",
          "target": "6"
        }
      ]
    },
    "2": {
      "text": "Tu te lève, testes la solidité de tes jambes et vois que tu tiens bien. Puis tu commence par faire le tour de ton lit et du lit de ton comparse blessé. Tu trouve au pied de ton lit ton armure de buste, d’un cuir fatigué, orné du même symbole que le tabard de ton compagnon de chambrée. Les personnes qui t’ont misent au lit te l’on enlevé sûrement à ce moment là. Tu reconnais facilement les coups qui t’ont blessé grâce aux rares trous de ton armures. Tu la mets sans hésiter, sans difficulté. De plus, en finissant de la mettre, tu aperçois à tes pieds un objet rond et métallique, une boussole, que tu mets directement dans ton sac.",
      "choices": [
        {
          "text": "Maintenant que tu es équipée, tu décides de te rapprocher de l’homme allongé et de lui parler.",
          "target": "4"
        },
        {
          "text": "Tu décides de te rapprocher de la porte pour découvrir l’extérieur de la maison qui t’accueille.",
          "target": "5"
        }
      ]
    },
    "3": {
      "text": "Tu te lève, puis sans déranger ton comparse blessé tu te dirige vers la porte donnant sur l’extérieur. Tu tends d’abord l’oreille, et entends un peu de chahut dehors. Tu entrouvres alors la porte et regardes la cause de celui-ci. Tu vois plusieurs maisons quelque peu vétustes mais de bonne facture de même que des arbres parsemés un peu partout qui forment en tout un village visuellement agréable. Sur un coté du village, on peut apercevoir une forêt naissante. Les maisons sont disposées autour d’une petite place qui a en son centre un puit. Sur cette place, qui se situe à une dizaine de mètre de toi, plusieurs villageois cours en tous sens tandis que d’autres sont figés sur place, car parmi ce décors rupestre se déroule un massacre. Des hommes armés tuent hommes femmes et enfants, fauchent ces âmes sans qu’une once regret ou de remord ne naisse sur leurs visages. Ils sont bien armée, ont l’air entraîné, et porte tous les mêmes couleurs : des soldats !",
      "choices": [
        {
          "text": "Il sont trop nombreux, tu refermes la porte et cherche un moyen de t’en sortir avec le vieil homme.",
          "target": "7"
        },
        {
          "text": "Ils sont trop nombreux, tu décides de partir de la maison et d’aller te cacher dans la forêt avoisinante. Tu as confiance, le vieil homme est en sécurité. ---",
          "target": "8"
        },
        {
          "text": "Outrée par ce ces actions, tu décides d’intervenir et de sauver des villageois. ---",
          "target": "9"
        }
      ]
    },
    "4": {
      "text": "Après avoir mis la boussole dans ton sac, tu te diriges vers la lit de ton vieux compagnon. Mais c’est avec surprise que tu découvre que celui-ci ne respire plus. Ses blessures ont eu raison de lui. Tu lui mets sa couverture sur son visage tandis qu’une larme roule sur ta joue. Ensuite, tu te diriges vers la porte retenant ta tristesse.",
      "choices": [
        {
          "text": "Tu ouvres la porte.",
          "target": "5"
        }
      ]
    },
    "5": {
      "text": "Tu ouvres la porte et regardes dehors. Tu vois plusieurs maisons quelque peu vétustes mais de bonne facture de même que des arbres parsemés un peu partout qui forment en tout un village visuellement agréable. Sur un coté du village, on peut apercevoir une forêt naissante. Les maisons sont disposées autour d’une petite place qui a en son centre un puit. Sur cette place, qui se situe à une dizaine de mètre de toi, plusieurs villageois cours en tous sens tandis que d’autres sont figés sur place, car parmi ce décors rupestre se déroule un massacre. Des hommes armés tuent hommes femmes et enfants, fauchent ces âmes sans qu’une once regret ou de remord ne naisse sur leurs visages. L’un d’eux relève la tête, t’aperçois et crie 'Elle est là !!!'",
      "choices": [
        {
          "text": "Ils sont trop nombreux, tu décides de partir de la maison et d’aller te cacher dans la forêt avoisinante. ---",
          "target": "8"
        }
      ]
    },
    "6": {
      "text": "Tu te lève, testes la solidité de tes jambes et vois que tu tiens bien. Puis tu commence par faire le tour de ton lit et du lit de ton comparse blessé. Tu trouve au pied de ton lit ton armure de buste, d’un cuir fatigué, orné du même symbole que le tabard de ton compagnon de chambrée. Les personnes qui t’ont misent au lit te l’on enlevé sûrement à ce moment là. Tu reconnais facilement les coups qui t’ont blessé grâce aux rares trous de ton armures. Tu la mets sans hésiter, sans difficulté. De plus, en finissant de la mettre, tu aperçois à tes pieds un objet rond et métallique, une boussole.",
      "choices": [
        {
          "text": "Tu mets la boussole dans ton sac.",
          "target": "4"
        }
      ]
    },
    "7": {
      "text": "Tu te diriges vers la lit de ton vieux compagnon. Mais c’est avec surprise que tu découvre que celui-ci ne respire plus. Ses blessures ont eu raison de lui. Tu lui mets sa couverture sur son visage tandis qu’une larme roule sur ta joue. Ensuite, tu te diriges vers la porte retenant ta tristesse. \nVoyant que tu  seras tout seul maintenant, et qu’il y a trop d’hommes armés dans ce village, tu ne pourras pas tous les vaincre. Surtout que dans ces hommes armés, tu as repéré des archers. Tu regardes  autour de toi et ne vois qu’une fenêtre par où passer et qu’une forêt où te cacher. Tu prends donc la décision de passer par celle-ci et de te mettre à couvert hors du village.",
      "choices": [
        {
          "text": "Après avoir rejoins l’autre coté de la maison, tu cours vers la forêt.",
          "target": "10"
        }
      ]
    },
    "8": {
      "text": "Tu sors de la maison en courant, pour mettre le plus de distance entre toi et ces soldats. Ceux-ci te pourchassent et criant divers ordres ou insultes, te forçant à presser le pas. A un moment tu entends un bruit différent et  vois à ta grande surprise une flèche se ficher dans une poutre proche de toi. Des archers ! Tu essayes de courir et te cachant, mais cela n’empêche pas les flèches de fuser autour de toi.\n     OOO        Fais un test de agiAction : Test raté = tu te prends une flèche, tu perds -1hp.",
      "choices": [
        {
          "text": "Tu cours vers la forêt.",
          "target": "10"
        }
      ]
    },
    "9": {
      "text": "Le comportement de ces soldats t’indigne et te mets vraiment en colère, tellement que tu ne peux réfléchir et tu sors à la rencontre du premier soldat que tu vois. Lorsque tu arrives à sa portée, celui-ci se retourne et crie 'Elle est là !!!'.\n      OOO       Combat",
      "choices": [
        {
          "text": "Galvanisé par ta victoire tu décides d’en attaquer un autre.---",
          "target": "11"
        },
        {
          "text": "C’était un beau combat, mais il était plus dur que prévu, tu vas tenter de ruser pour les prochains. ---",
          "target": "12"
        },
        {
          "text": "Le combat était dur, et tu ne pourrais pas en faire d’autre, tu décides de fuir en dehors du village.",
          "target": "13"
        }
      ]
    },
    "11": {
      "text": "Tu en as tué un ! Assez facilement qui plus est. Tu te dis que tu as toutes tes chances et tu cherche du regards ta futur cible, le prochain mort ! Néanmoins, en cherchant ainsi, tu te rends compte que d’autre regards sont tournés vers toi. Il y a comme un instant de flottement où les tueries et pillages cessent, où tous te regardent fixement sans mot dire. Ce passage t’as semblé duré une éternité alors que seulement quelques secondes sont passées. Et au bout de ce laps de temps, un des hommes armés ouvre la bouche et crie d’un crie puissant qui se fait entendre dans un bon périmètre 'Elle est là !!!'",
      "choices": [
        {
          "text": "Au vu de l’attention que l’on porte maintenant, tu sais que tu n’as aucune chances de tous les combattre et décides de fuir en dehors du village.",
          "target": "13"
        },
        {
          "text": "Tu as beaucoup d’attention sur toi maintenant, mais tu penses que tous les combattre grâce à la ruse , ça serait possible. ---",
          "target": "16"
        }
      ]
    },
    "12": {
      "text": "Après ce combat, tu te dis qu’une attaque frontale mènerai à ton décès et que seule la ruse peut être ton alliée. Tu regardes donc autour de toi pour jauger la situation, et vois que les combats sont plus proche de toi que tu ne le pensais. Et alors que tu commences à avancer pour trouver une cachette pour pouvoir les prendre à revers, tu vois une flèches se ficher dans une poutre proche de toi. Des archers ! Tu essayes de courir et te cachant mieux, mais cela n’empêche pas les flèches de fuser autour de toi.\n     OOO       Fais un test de agiAction : Test raté = tu te prends une flèche, tu perds -1hp.",
      "choices": [
        {
          "text": "Suite à cette action de ruse raté, tu souhaites rejoindre au plus vite la forêt.",
          "target": "10"
        }
      ]
    },
    "13": {
      "text": "Tu regardes autour de toi, et vois que tout les regards sont braqué sur toi. Toute cette attention te mets une forte pression, et cette pression te permet de forcer sur tes jambes qui étaient encore amorphes il y a peu de temps. Tu fonces vers la forêt, en évitant au maximum de courir en ligne droite, mais cela n’empêche pas d’entendre des bruits fuser autour de toi, des flèches ! Tu essayes de courir et te cachant mieux, mais cela n’empêche pas les flèches de fuser autour de toi.\nOOO        Fais un test de agiAction : Test raté = tu te prends une flèche, tu perds -1hp.",
      "choices": [
        {
          "text": "Suite à cette course effréné, tu souhaites rejoindre au plus vite la forêt.",
          "target": "10"
        }
      ]
    },
    "16": {
      "text": "En rusant tu penses pouvoir venir à bout de ces mécréants. Tu te diriges vite vers un abri, pour essayer de faire perdre ta traces aux soldats t’ayant repérer. Tu trouves une charrette. Après t’être mis derrière celle-ci, tu regardes  autour de toi pour jauger la situation, et alors que tu commences à échafauder un plan pour pouvoir les prendre à revers, tu vois une flèches se ficher dans une poutre proche de toi. Des archers ! Ils t’ont repéré ! Tu sors de ton maigre abri et cours en te cachant au mieux, mais cela n’empêche pas les flèches de fuser autour de toi. La ruse n’est plus de mise, il ne te reste que la solution forêt.\n     OOO         Fais un test de agiAction : Test raté = tu te prends une flèche, tu perds -1hp.",
      "choices": [
        {
          "text": "Suite à cette action de ruse raté, tu souhaites rejoindre au plus vite la forêt.",
          "target": "10"
        }
      ]
    },
    "Section": "Forest",
    "10": {
      "text": "Tu cours à toute allure vers la forêt, allant d’une cachette à une autre, évitant ainsi d’être vu. Plusieurs flèches sifflent à tes oreilles, mais tu arrives à esquiver et à atteindre l’orée de la forêt après une bonne course. Tu t’adosses à un arbre, haletante, pour reprendre ton souffle et connaître la situation derrière toi. Les hommes armés ne t’ont pas lâché ! Ils se sont réuni et se dirigent tous dans ta direction. Reprenant ton courage, tu repars t’enfoncer dans la forêt pour y trouver un abri.",
      "choices": [
        {
          "text": "Courir en zigzaguant pour éviter d’éventuelles flèches et les distancer au maximum.",
          "target": "14"
        },
        {
          "text": "Courir et chercher un arbre dans lequel monter pour t’y cacher. ---",
          "target": "15"
        }
      ]
    },
    "15": {
      "text": "Tu cours en slalomant entre les arbres et arbustes, cherchant frénétiquement un arbre te permettant de te cacher. Tu écartes donc les arbres peu feuillu ou ceux avec des branches trop hautes pour te permettre d’escalader. Au détour d’un arbuste, enfin tu en vois un idéal. Quelques pas suffisent pour te retrouver à son pied, et t’aidant de  la vitesse de ta course, tu t’élances et attrape la première branche, et tente de monter.\n      OOO        Fais un test de phyAction : Test raté = tu tombe de l’arbre, tu perds -1hp.",
      "choices": [
        {
          "text": "Test raté = Tu n’as pas réussi à monter, tu décides de suivre ton autre idée, de courir en zigzaguant pour les semer.",
          "target": "14"
        },
        {
          "text": "Test réussi = Tu arrives à monter à l’arbre.",
          "target": "17"
        }
      ]
    },
    "17": {
      "text": "Tu escalades l’arbre aisément, trouvant une branche souhaitée sur laquelle t’appuyer à chacun de te gestes. Repos mais à l’affût. Lendemain matin",
      "choices": [
        {
          "text": "tu pars au matin frais et dispo, +2hp.",
          "target": "18"
        }
      ]
    },
    "14": {
      "text": "Courir en zigzaguant pour éviter d’éventuelles flèches et les distancer au maximum.Cours en zigzaguant entre les arbres, puis cacher derrière un arbre mort. Troupe surveille. tu attends. vois une grotte",
      "choices": [
        {
          "text": "entrer dans grotte",
          "target": "5"
        },
        {
          "text": "ne pas entrer et continuer à marcher",
          "target": "20"
        }
      ]
    },
    "20": {
      "text": "continuer à marcher nuit tombe",
      "choices": [
        {
          "text": "continuer à marcher encore ---",
          "target": "21"
        },
        {
          "text": "retourner à la grotte",
          "target": "22"
        },
        {
          "text": "essayer de monter à un arbre ---",
          "target": "23"
        }
      ]
    },
    "21": {
      "text": "marcher dans le noir mauvaise idée, monstre apparaît.      OOO       Combat",
      "choices": [
        {
          "text": "Tu gagnes",
          "target": "24"
        }
      ]
    },
    "24": {
      "text": "continuer à marcher, fatigué et blessé. Matin, arrive près d’un étang.",
      "choices": [
        {
          "text": "Tu vas vers l'étang ---",
          "target": "25"
        }
      ]
    },
    "22": {
      "text": "difficulté à retrouver grotte.",
      "choices": [
        {
          "text": "grotte ---",
          "target": "19"
        }
      ]
    },
    "23": {
      "text": "OOO      phyAction difficile car nuit tombé.",
      "choices": [
        {
          "text": "matin, +1hp.",
          "target": "18"
        }
      ]
    },
    "19": {
      "text": "OOO      intAction pour chercher après petite inspection. Réussi = armure nv1 sur cadavre humain vs gobelin. + médaillon soldat. Matin réveil en forme +2hp.Se balade dans la foret.",
      "choices": [
        {
          "text": "Tu vas vers l'étang ---",
          "target": "25"
        }
      ]
    },
    "18": {
      "text": "descend de l’arbre et se dirige vers l’étang",
      "choices": [
        {
          "text": "Tu vas vers l'étang ---",
          "target": "25"
        }
      ]
    },
    "25": {
      "text": "étang, joli. Pas de troupe. Un elfe peureux apparaît. 000     intAction pour sociabiliser.",
      "choices": [
        {
          "text": "réussi",
          "target": "26"
        },
        {
          "text": "raté",
          "target": "27"
        }
      ]
    },
    "26": {
      "text": "content, il sympathise avec toi, te donne une potion de soin. Puis attiré vers une direction.",
      "choices": [
        {
          "text": "Cercle de pierre",
          "target": "28"
        }
      ]
    },
    "27": {
      "text": "elfe peur part. Dommage. Puis attiré vers une direction.",
      "choices": [
        {
          "text": "Cercle de pierre",
          "target": "25"
        }
      ]
    },
    "28": {
      "text": "Cercle de pierre. Cercle basique, rien de spéciale. Mais tu vois un homme aventurier, il est mourrant, et te demande de l’aider. Mais tu ne peux rien faire. Il te dit qu’il a fuit le château au nord, car le seignieur est devenu fou depuis qu’il a reçu un artefact magique. Puis il meurt.",
      "choices": [
        {
          "29": "le fouiller",
          "target": "29"
        },
        {
          "text": "l’enterrer",
          "target": "30"
        }
      ]
    },
    "29": {
      "text": "il a arme et amure niveau 2 + torche + corde",
      "choices": [
        {
          "text": "repars dans la foret",
          "target": "31"
        }
      ]
    },
    "31": {
      "text 31": "en foret, pour trouver son chemin",
      "choices": [
        {
          "text": "Utilise boussole",
          "target": "36"
        },
        {
          "text": "plus de boussole.",
          "target": "37"
        }
      ]
    },
    "30": {
      "text": "Tu l’enterre en lui laissant ses affaires. Le cercle de pierre luit, puis au centre les pierres forment un passage, tu passes. Tu rencontre Jeanzus. Il te donne énigme pour grande récompense.",
      "choices": [
        {
          "text": "énigme réussi",
          "target": "33"
        },
        {
          "text": "énigme trop dur (ou la flemme)",
          "target": "34"
        }
      ]
    },
    "33": {
      "text": "Tu reçois une Arme ++ !",
      "choice": [
        {
          "text": "tu sors du cercle de pierre",
          "target": "35"
        }
      ]
    },
    "34": {
      "text": "Enigme top dur, dommage.",
      "choices": [
        {
          "text": "tu sors du cercle de pierre",
          "target": "35"
        }
      ]
    },
    "35": {
      "text": "En sortant tu te sens reposé, tu regagne 5hp.",
      "choices": [
        {
          "text": "repars en foret.",
          "target": "31"
        }
      ]
    },
    "36": {
      "text": "tu utilise la boussole et arrive en fin de journée à al lisière de la foret.",
      "choices": [
        {
          "text": "en vue de la route",
          "target": "38"
        }
      ]
    },
    "37": {
      "text": "tu passes la journée en foret, tu te perds. Arrive la nuit, tu entends des bruits et des cris, les soldats t’ont peut-être retrouvé.",
      "choices": [
        {
          "text": "tu décides de continuer en foret, malgré la nuit",
          "target": "39"
        },
        {
          "text": "tu montes à un arbre.",
          "target": "40"
        }
      ]
    },
    "39": {
      "text": "Tu te perds un peu, marche à l’aveugle. Tu t’allonge un peu pour dormir , mais tu te réveil en sursaut au moindre bruit Tu perds -1hp.",
      "choices": [
        {
          "text": "au réveil",
          "target": "42"
        }
      ]
    },
    "42": {
      "text": "tu te réveil au matin, tu te perds un peu. Mais à un moment arrives en vue de la route",
      "choices": [
        {
          "text": "en vue de la route",
          "target": "38"
        }
      ]
    },
    "40": {
      "text": "tu prends le temps de monter à un arbre. Mais il y a un monstre (araignée)Combat",
      "choices": [
        {
          "text": "après l’avoir tué, tu te repose.",
          "target": "41"
        }
      ]
    },
    "41": {
      "41": "tu entends quelques bruits dans la nuit mais tu dors presque correctement +1hp. Au matin tu descends de l’arbre",
      "choices": [
        {
          "text": "au réveil",
          "target": "42"
        }
      ]
    },
    "Section": "Castle",
    "38": {
      "text": "la route : tu arrives sur la route ,vois deux carrioles.",
      "choices": [
        {
          "text": "tu t’approches",
          "target": "43"
        },
        {
          "text": "tu les évites",
          "target": "44"
        }
      ]
    },
    "44": {
      "text": "tu les contournes et continues ta route vers ce qui se profil au loin comme le château dont le mourant t’as parlé. Loin+ route = trois jours de marche = -2hp.",
      "choices": [
        {
          "text": "proche château.",
          "target": "45"
        }
      ]
    },
    "43": {
      "text": "en t’approchant de la première carriole, ils sont 4, sont sympathiques, mais armé d’épées (pas soldat) et te demande ou tu vas. Ils vont au château aussi, il te propose de t’emmener.",
      "choices": [
        {
          "text": "accepter",
          "target": "46"
        },
        {
          "text": "refuser",
          "target": "44"
        }
      ]
    },
    "46": {
      "text": "tu montes dans la carrioles. Sympathique et souriant, ils t’offrent a manger et a boire. Et tu pars. Vous passez une journée de trajet agréable. Le soir tout le monde installe le camps. Mais pas deuxième carriole. Intrigué tu vas voir, ils y a des esclaves  enchaînes à l’intérieur. Tu retournes vers les hommes, marchands d’esclaves.",
      "choices": [
        {
          "text": "tu vas tout faire pour libérer les esclaves.",
          "target": "47"
        },
        {
          "text": "qu’importe les esclaves, tant que tu arrives au château pour récupérer l’artefact volé",
          "target": "48"
        }
      ]
    },
    "48": {
      "text": "un bon voyages malgré quelques gémissement des esclaves.",
      "choices": [
        {
          "text": "proche château",
          "target": "42"
        }
      ]
    },
    "47": {
      "text": "Mais comment faire ?",
      "choices": [
        {
          "text": "attaque un par un pour les éliminer plus facilement et libérer les esclaves après --- --- --- ---",
          "target": "49"
        },
        {
          "text": "discrètement pour ouvrir les chaînes des esclaves ---",
          "target": "50"
        }
      ]
    },
    "49": {
      "text": "OOO      Combat marchands d’esclaves",
      "choices": [
        {
          "text": "réussi = libère esclaves",
          "target": "51"
        }
      ]
    },
    "50": {
      "text": "OOO      test agiAction discret+ crochetage",
      "choices": [
        {
          "text": "réussi",
          "target": "52"
        },
        {
          "text": "raté, tu n’y arrives pas",
          "target": "53"
        }
      ]
    },
    "52": {
      "text": "les esclaves se libèrent et marchands prévenu par bruit vient. Tu aides les esclaves à tuer les marchands",
      "choices": [
        {
          "text": "les marchands sont morts",
          "target": "60"
        }
      ]
    },
    "53": {
      "text": "tu n’arrives pas à crocheter",
      "choices": [
        {
          "text": "phyAction pour casser le cadenas ---",
          "target": "54"
        },
        {
          "text": "combattre les marchands --- --- ---",
          "target": "49"
        },
        {
          "text": "ne rien faire et t’excuser auprès des esclaves",
          "target": "56"
        }
      ]
    },
    "56": {
      "text": "navré. Retourne vers les marchands",
      "choices": [
        {
          "text": "un bon voyages malgré quelques gémissement des esclaves.",
          "target": "48"
        }
      ]
    },
    "54": {
      "text": "OOO      phyAction pour casser le cadenas",
      "choices": [
        {
          "text": "test réussi",
          "target": "57"
        },
        {
          "text": "alerter par le bruit, marchands réveillé",
          "target": "58"
        }
      ]
    },
    "57": {
      "text": "cadenas cassé",
      "choices": [
        {
          "text": "esclaves libéré, combat marchands ensemble",
          "target": "52"
        }
      ]
    },
    "58": {
      "text": "Bruit, cadenas encore là. Marchands se rut sur toi.",
      "choices": [
        {
          "text": "combattre --- --- --- ---",
          "target": "59"
        },
        {
          "text": "fuir",
          "target": "61"
        }
      ]
    },
    "59": {
      "text": "OOO      Combat, puis OOO      Combat, puis OOO      Combat, puis OOO      Combat (il y a 4 marchands)",
      "choices": [
        {
          "text": "libère esclaves",
          "target": "51"
        }
      ]
    },
    "51": {
      "text": "ils te remercient et en pleure. Tu dis que c’est normal tout ça tout ça. Tuleur donne une carriole après avoir fouillé et prends la deuxième. Tu trouve une corde et une torche.",
      "choices": [
        {
          "text": "vers le chateau",
          "target": "62"
        }
      ]
    },
    "60": {
      "text": "les marchands sont mort. Tu prends ton temps et libere les esclaves",
      "choices": [
        {
          "text": "ils te remercient",
          "target": "51"
        }
      ]
    },
    "61": {
      "text": "Tu fuis le combat et la libération raté des esclaves. Tu cours dans la nuit. Tu te couche sommairement.(-1hp) Tu repars à pieds vers le château le lendemain matin.",
      "choices": [
        {
          "text": "proche du chateau",
          "target": "45"
        }
      ]
    },
    "45": {
      "text": "proche château à pied. ",
      "choices": [
        {
          "text": " entrer dans village",
          "target": "64"
        },
        {
          "text": "contourner et observer les alentours",
          "target": "67"
        }
      ]
    },
    "62": {
      "text": "proche château en carriole. Garde carriole pour entrer dans village.Grand château, plusieurs hommes armées, même tunique que ceux qui t’ont attaqué dans le village. Donc ils te recherchent.",
      "choices": [
        {
          "text": "tu rentres dans le village avec la carriole",
          "target": "63"
        },
        {
          "text": "tu rentres dans le village sans la carriole donc à pied",
          "target": "64"
        },
        {
          "text": "tu décides d’attendre, de contourner et observer les alentours",
          "target": "65"
        }
      ]
    },
    "64": {
      "text": "village à pied",
      "choices": [
        {
          "text": "Tu as le médaillon",
          "target": "66"
        },
        {
          "text": "Tu n’as pas le médaillon",
          "target": "67"
        }
      ]
    },
    "63": {
      "text": "village carriole",
      "choices": [
        {
          "text": "Tu as le médaillon",
          "target": "91"
        },
        {
          "text": "Tu n’as pas le médaillon",
          "target": "92"
        }
      ]
    },
    "66": {
      "text": "pied + médaillon : tu rentre facilement, mais regards bizarre. Village sympa mais soldats partout.  Tu ne traînes pas trop et va vers l’entrée du château. A l’entrée, deux gardes contrôlent.",
      "choice": [
        {
          "text": "passer en force --- ---",
          "target": "68"
        },
        {
          "text": "ruser social ---",
          "target": "69"
        },
        {
          "text": "ruser agi ---",
          "target": "70"
        }
      ]
    },
    "67": {
      "text": "pied+pas médaillon entré village : soldats ne te laisse pas entrer",
      "choice": [
        {
          "text": "attendre et observer les alentours",
          "target": "65"
        },
        {
          "text": "passer en force --- ---",
          "target": "82"
        },
        {
          "text": "ruser agi ---",
          "target": "83"
        }
      ]
    },
    "68": {
      "text ": "passer en force. OOO       Combat contre deux soldats.",
      "choice": [
        {
          "text": "combat réussi --- --- ---",
          "target": "71"
        }
      ]
    },
    "70": {
      "text": "ruser agi : agiAction pour passer derrière les gardes",
      "choices": [
        {
          "text": "test réussi",
          "target": "79"
        },
        {
          "text": "test raté",
          "target": "91"
        }
      ]
    },
    "71": {
      "text": "combat soldats entré réussi. 3 autre soldats attiré par le bruit viennent. OOO   Combat * 3",
      "choice": [
        {
          "text": "réussi= carnage",
          "target": "72"
        }
      ]
    },
    "72": {
      "text": "après 5 morts, les gens te fuit un peu. Tu rentres dans le château. Peu de gens dans la cour. Tu arrives vers le donjon.",
      "choices": [
        {
          "text": "Tu montes",
          "target": "73"
        }
      ]
    },
    "73": {
      "text": "Ton ascension se passe sans encombre. Tu arrives dans un couloir, avec plusieurs portes, toutes identiques et ouvertes, sauf une, plus grande, plus travaillé avec des décorations. Tu tends l’oreille mais aucun son n’en sors.",
      "choices": [
        {
          "text": "Tu ouvres la grande porte",
          "target": "74"
        },
        {
          "text": "Tu vas voir les autres pièces ---",
          "target": "75"
        }
      ]
    },
    "75": {
      "text": "Tu fouilles les pièces: OOO       test intAction.",
      "choices": [
        {
          "text": "test réussi",
          "target": "76"
        },
        {
          "text": "test raté",
          "target": "77"
        }
      ]
    },
    "76": {
      "text": "Tu trouves une potion de soin et une armure nv2. Mais rien d’autre, du coup tu vas vers la grande porte.",
      "choices": [
        {
          "text": "Tu ouvres la grande porte. ---",
          "target": "74"
        }
      ]
    },
    "77": {
      "text": "Tu trouves une potion. Mais rien d’autre du coup tu vas vers la grande porte.",
      "choices": [
        {
          "text": "tu ouvres la grande porte ---",
          "target": "74"
        }
      ]
    },
    "74": {
      "text": "Tu poses tes mains sur la porte et la pousse. Grande salle, éclairé par des torches, plusieurs fenêtres mais grands rideaux épais qui les cache et cache la lumière. Salle tapis rouge fatigué, trône simple. Personne dans la piece, mais du bruit derrière la voûte derrière le trône. Tu t’avances, et vois un homme, grand, yeux dans le vague, vider le contenu d’une tasse un peu transparente et faire tomber un ruby. Ce ruby tombe dans un coffre sous le regards hilare de l’homme. Il relève la tête. ‘Toi ! Tu es encore en vie…..ce trésor est à moi, tu ne l’auras pas, il est à moi ! C’est moi son propriétaire, pas toi, pas ton fichu ordre de chevalerie.’ beugle-t-il en postillonnant. ‘Vous vous en serviez pas, il vous servait à rien, il est à moi ! Je vais tout acheter avec ça, et je deviendrai le maître du pays. Non non non non...je deviendrai le maître du monde. Oui, oui ça c’est bien, le maître du monde. Donc je suis ton maître, et je t’ordonne de me laisser, laisse moi !’ Tu vois vite que cet homme a perdu l’esprit à cause de la tasse de crystal. Tu le prends un peu en pitié, mais tu t’approche un peu de lui pour lui reprendre l’artefact de ton ordre de chevalerie. A peine tu esquisse le mouvement pour le faire, il crie et te saute dessus. Il est en fait plus grand que toi et enragé. OOO    Combat contre boss.",
      "choices": [
        {
          "text": "Tu vaincs l’homme dérangé, mais pas totalement. Celui ci s’éloigne un peu de toi et sors vite deux potions qu’il boit d’une traite. ---",
          "target": "78"
        }
      ]
    },
    "100": {
      "text": "Bravo, fin du game !"
    },
    "78": {
      "text": "Il devient rouge violacé, il devient plus fort et semble avoir guéri. Il se tourne vers toi et te charge. 000      Combat numéro deux contre le boss, plus fort",
      "choices": [
        {
          "text": "Tu réussi à le vaincre pour de bon",
          "target": "100"
        }
      ]
    },
    "69": {
      "text": "ruser social : venir et discuter OOO   intAction",
      "choices": [
        {
          "text": "test réussi",
          "target": "79"
        },
        {
          "text": "test raté",
          "target": "80"
        }
      ]
    },
    "79": {
      "text": "Tu arrives bien ton action et à passer la porte. Tu croise plusieurs personnes qui ne te calcul pas, tu es passé sans encombre. Tu arrives vers le donjons",
      "choices": [
        {
          "text": "Tu montes",
          "target": "73"
        }
      ]
    },
    "80": {
      "text": "Tu as beau user de tout tes stratagèmes, de les endormir avec des excuses, mais rien. Pire, il te trouve trop suspect maintenant",
      "choices": [
        {
          "text": "tu fuis dans le village",
          "target": "81"
        },
        {
          "text": "tu décides de passer en force --- ---",
          "target": "68"
        }
      ]
    },
    "81": {
      "text": "tu fuis dans le village : ",
      "choices": [
        {
          "text": "tu décides de sortir du village pour observer les alentours",
          "target": "65"
        },
        {
          "text": "Tu décides de revenir vers l’entré du château et d’essayer de ruser agi",
          "target": "70"
        }
      ]
    },
    "82": {
      "text": "passe en force l’entré village. Trois soldat OOO   Combat",
      "choices": [
        {
          "text": "combat réussi",
          "target": "84"
        }
      ]
    },
    "83": {
      "text": "ruser agi entrée village: OOO    agiAction",
      "choices": [
        {
          "text": "test réussi, tu arrives à passer et va dans le village en furtif",
          "target": "87"
        },
        {
          "text": "Test raté, ils t’ont vu, tu décides de passer en force --- --- ---",
          "target": "82"
        }
      ]
    },
    "84": {
      "text": "combat à attiré attention.",
      "choices": [
        {
          "text": "tu continues rentrer dans le village en forçant le passage --- --- ---",
          "target": "85"
        },
        {
          "text": "tu décides de te cacher ---",
          "target": "86"
        }
      ]
    },
    "85": {
      "text": "Tu avances un peu en courant direction le château, trois gardes arrivent OOO     Combat",
      "choices": [
        {
          "text": "Tu poursuis les combat --- ---",
          "target": "89"
        }
      ]
    },
    "86": {
      "text": "cacher dans le village OOO     agiAction",
      "choices": [
        {
          "text": "caché réussi",
          "target": "87"
        },
        {
          "text": "caché raté --- ---",
          "target": "88"
        }
      ]
    },
    "87": {
      "text": "tu te cache bien, tu arpentes le village furtivement, puis tu arrives devant la porte du château",
      "choices": [
        {
          "text": "porte du château",
          "target": "66"
        }
      ]
    },
    "88": {
      "text": "on te voit, on te poursuit. Deux soldats OOO     Combat",
      "choices": [
        {
          "text": "tu réussi à les battre, mais on te voit toujours",
          "target": "89"
        }
      ]
    },
    "89": {
      "text": "au fil des combats, tu est arrivé proche de l’entrée du château, les deux gardes te vois OOO      Combat",
      "choices": [
        {
          "text": "combat réussi mais attire l’attention --- --- ---",
          "target": "71"
        }
      ]
    },
    "90": {
      "text": "les gardes de l’entrée du château t’ont vu",
      "choices": [
        {
          "text": "tu fuis dans le village",
          "target": "81"
        },
        {
          "text": "tu passes en force les deux gardes --- ---",
          "target": "68"
        }
      ]
    },
    "91": {
      "text": "Tu rentres sans soucis, on te voit, et on veut t’échanger ta carriole. Comme elle ne te servira plus, tu acceptes. Tu échanges contre une armure niv2 et une potion de soin.",
      "choices": [
        {
          "text": "Tu arrives devant l’entrée du chateau",
          "target": "66"
        }
      ]
    },
    "92": {
      "text": "Bon, tu ne peux pas passer. Mieux vaut contourner et observer les alentours alors.",
      "choices": [
        {
          "text": "Voir les alentours",
          "target": "65"
        }
      ]
    },
    "65": {
      "text": "tu te ballade en dehors du village.",
      "choices": [
        {
          "text": "Tu as une corde et veut monter au rempart",
          "target": "93"
        },
        {
          "text": "Tu passes par derrière et cherche une autre entré",
          "target": "94"
        }
      ]
    },
    "93": {
      "text": "grace à corde tu montes au rempart. Arrivé en haut, personne ne t’as vu, peu de garde. Tu descends et tu fais mine de rien. Tu arrives au pied du donjon",
      "choices": [
        {
          "text": "Tu montes",
          "target": "73"
        }
      ]
    },
    "94": {
      "text": "Tu trouve une entrée derrière le château, un peu abandonné. Tu y entre, et trouve un tunnel",
      "choices": [
        {
          "text": "Tu as une torche",
          "target": "95"
        },
        {
          "text": "Tu n’as pas de torche",
          "target": "96"
        }
      ]
    },
    "95": {
      "text": "Tu avances bien, et à la fin du tunnel, tu trouves une porte. Tu l’ouvre et tu es en bas d’un escalier.",
      "choices": [
        {
          "text": "tu montes",
          "target": "73"
        }
      ]
    },
    "96": {
      "text": "Le tunnel est trop sombre, tu te déplaces difficilement, et sans faire attention, tu glisses dans un ravin. Ton aventure est fini, TU ES MORTE",
      "choices": []
    }
  }
}